100	200	1	38
0	100	100	0	0	1501	0	0	0
1	181	172	10	348	419	90	0	245
2	154	31	-10	795	860	90	124	0
3	123	106	-10	747	797	90	315	0
4	23	137	20	703	763	0	0	418
5	190	28	20	115	177	90	0	330
6	8	71	-10	0	1315	90	68	0
7	103	130	-10	0	1381	90	33	0
8	62	50	20	0	1349	90	0	43
9	89	161	-10	0	1350	90	108	0
10	117	91	20	446	513	90	0	152
11	12	156	-20	540	580	90	236	0
12	88	165	-40	220	286	90	198	0
13	107	125	10	657	697	90	0	76
14	8	74	-20	535	595	90	357	0
15	105	125	-20	746	793	90	101	0
16	118	192	30	0	1318	90	0	132
17	146	11	10	100	160	90	0	168
18	93	13	30	0	1324	90	0	238
19	188	125	-40	426	484	90	256	0
20	87	117	-10	832	881	90	398	0
21	123	31	-10	682	748	90	381	0
22	121	189	-10	0	1320	90	136	0
23	174	128	20	79	140	0	0	415
24	197	80	10	248	313	90	0	220
25	151	165	10	630	688	90	0	96
26	140	4	10	428	505	90	0	40
27	78	184	-10	0	1325	90	248	0
28	96	150	-10	0	1361	90	212	0
29	96	147	-10	188	271	90	255	0
30	149	182	-20	0	1316	90	73	0
31	87	191	10	0	1320	90	0	239
32	189	151	30	0	1309	90	0	396
33	99	144	10	44	102	90	0	7
34	64	52	-30	865	926	90	387	0
35	7	151	-20	808	867	90	290	0
36	151	99	10	0	1360	90	0	130
37	87	118	10	743	789	0	0	421
38	179	141	20	251	296	90	0	111
39	192	151	10	348	413	90	0	67
40	143	0	-10	809	863	90	26	0
41	66	58	-10	1145	1203	90	319	0
42	122	14	-20	0	1323	90	119	0
43	66	52	-20	0	1353	90	8	0
44	173	55	-10	0	1326	90	114	0
45	119	37	20	874	931	0	0	413
46	199	28	-30	0	1289	90	337	0
47	90	161	10	404	472	90	0	219
48	36	193	20	633	678	90	0	234
49	159	160	-30	0	1327	90	127	0
50	194	112	-20	613	683	90	233	0
51	176	173	20	0	1306	90	0	116
52	117	193	-30	151	219	90	291	0
53	186	96	20	895	955	90	0	86
54	39	56	10	129	204	90	0	84
55	189	120	-20	522	578	90	205	0
56	29	139	10	81	135	90	0	370
57	37	190	-10	528	598	90	244	0
58	165	117	10	0	1344	0	0	416
59	16	84	-10	805	852	90	102	0
60	187	97	-20	811	857	90	254	0
61	10	153	20	348	404	90	0	218
62	194	149	20	0	1305	90	0	264
63	187	112	30	87	137	90	0	131
64	103	70	10	176	250	90	0	208
65	193	159	20	0	1301	90	0	184
66	77	115	20	359	425	90	0	277
67	190	154	-10	443	506	90	39	0
68	3	75	10	0	1311	90	0	6
69	17	93	20	152	202	90	0	222
70	151	167	-20	337	410	90	87	0
71	12	85	-20	517	580	90	304	0
72	120	11	10	143	224	90	0	273
73	140	181	20	0	1321	90	0	30
74	6	67	10	251	310	90	0	178
75	137	4	-30	1091	1146	90	172	0
76	103	124	-10	821	901	90	13	0
77	10	67	30	150	224	90	0	394
78	48	30	50	239	299	90	0	323
79	53	67	-30	590	650	90	146	0
80	164	113	20	0	1346	90	0	175
81	47	49	-20	787	849	90	246	0
82	187	92	20	337	391	90	0	296
83	121	115	20	178	234	90	0	206
84	46	51	-10	0	1339	90	54	0
85	144	189	30	341	402	90	0	300
86	180	93	-20	1072	1151	90	53	0
87	152	168	20	260	303	90	0	70
88	117	95	10	68	149	90	0	336
89	195	25	-10	906	982	90	153	0
90	108	168	20	512	569	0	0	412
91	149	103	-20	0	1362	90	344	0
92	60	58	20	58	102	0	0	408
93	197	79	10	333	409	0	0	406
94	39	58	30	74	131	0	0	414
95	147	186	-10	625	683	90	265	0
96	154	163	-10	714	792	90	25	0
97	96	128	30	28	89	90	0	237
98	30	187	10	0	1300	90	0	250
99	123	121	20	0	1380	0	0	403
100	104	68	10	0	1379	90	0	318
101	102	128	20	281	328	90	0	15
102	18	89	10	82	136	90	0	59
103	197	77	20	709	766	90	0	122
104	156	11	-10	1190	1240	90	320	0
105	144	33	30	80	129	90	0	361
106	101	67	20	0	1378	90	0	163
107	159	121	-10	0	1349	90	382	0
108	84	192	10	342	393	90	0	9
109	139	7	20	0	1311	90	0	282
110	7	152	-20	715	779	90	182	0
111	181	147	-20	445	493	90	38	0
112	104	170	20	140	182	90	0	196
113	13	81	30	610	676	90	0	253
114	172	57	10	83	140	90	0	44
115	80	108	-10	86	140	90	126	0
116	180	171	-20	452	498	90	51	0
117	146	3	-10	439	500	90	355	0
118	123	33	-20	0	1341	90	186	0
119	127	8	20	904	958	90	0	42
120	185	115	20	618	675	90	0	151
121	192	113	20	248	299	90	0	173
122	194	75	-20	892	952	90	103	0
123	135	0	-10	988	1060	90	292	0
124	157	30	10	709	761	90	0	2
125	53	29	-10	513	593	90	188	0
126	85	110	10	18	73	90	0	115
127	182	171	30	548	587	90	0	49
128	79	193	-10	0	1316	90	192	0
129	181	52	10	603	674	90	0	263
130	148	103	-10	835	908	90	36	0
131	190	109	-30	892	955	90	63	0
132	119	188	-30	807	875	90	16	0
133	197	140	-20	250	326	90	156	0
134	162	123	-10	693	749	90	338	0
135	102	170	40	216	290	90	0	279
136	120	198	10	0	1311	90	0	22
137	175	50	-10	896	951	90	281	0
138	23	142	10	0	1324	90	0	190
139	149	99	-20	0	1362	90	301	0
140	102	174	20	0	1337	90	0	311
141	30	142	10	146	202	90	0	275
142	175	143	-10	0	1325	90	194	0
143	193	27	10	449	512	90	0	147
144	193	82	10	148	223	90	0	229
145	103	67	-20	463	515	90	269	0
146	55	64	30	398	463	90	0	79
147	197	25	-10	732	788	90	143	0
148	42	105	-20	494	552	90	340	0
149	100	129	30	180	245	90	0	257
150	120	115	-30	80	151	90	366	0
151	183	120	-20	0	1326	90	120	0
152	115	89	-20	554	591	90	10	0
153	196	27	10	822	882	90	0	89
154	131	38	20	124	194	90	0	346
155	145	31	20	143	201	90	0	395
156	196	137	20	166	223	90	0	133
157	98	150	10	295	350	90	0	169
158	159	8	10	1095	1146	90	0	227
159	15	88	10	335	394	90	0	211
160	191	27	10	174	239	90	0	215
161	196	111	-20	0	1315	90	213	0
162	150	6	-10	623	686	90	247	0
163	95	74	-20	0	1385	90	106	0
164	42	101	10	682	732	90	0	367
165	53	59	20	221	270	90	0	308
166	193	23	20	1008	1067	90	0	258
167	40	105	10	396	465	90	0	378
168	152	4	-10	813	865	90	17	0
169	100	151	-10	476	536	90	157	0
170	24	140	20	609	670	90	0	331
171	87	195	-30	525	581	90	287	0
172	140	6	30	347	401	90	0	75
173	197	113	-20	435	491	90	121	0
174	40	183	20	0	1309	90	0	345
175	127	114	-20	638	710	90	80	0
176	182	46	-30	0	1313	90	348	0
177	151	190	40	523	593	0	0	405
178	8	69	-10	808	872	90	74	0
179	44	52	-10	316	389	90	180	0
180	43	54	10	236	285	90	0	179
181	179	174	10	165	233	90	0	389
182	13	152	20	157	225	90	0	110
183	137	1	-10	913	952	90	352	0
184	127	118	-20	0	1379	90	65	0
185	118	92	30	365	412	0	0	422
186	129	40	20	66	154	90	0	118
187	123	4	10	717	774	90	0	200
188	55	24	10	442	475	90	0	125
189	41	182	30	101	166	0	0	401
190	22	133	-10	796	858	90	138	0
191	151	101	20	472	538	90	0	372
192	82	194	10	798	865	90	0	128
193	185	124	10	332	392	90	0	294
194	180	147	10	0	1319	90	0	142
195	97	7	20	340	400	0	0	409
196	108	165	-20	603	665	90	112	0
197	47	50	-10	891	928	90	312	0
198	93	167	40	0	1344	90	0	12
199	186	91	10	242	303	90	0	293
200	124	6	-10	803	872	90	187	0
201	149	167	-10	0	1328	90	302	0
202	125	38	30	319	371	90	0	342
203	123	8	-20	252	304	90	397	0
204	199	76	30	0	1310	90	0	286
205	194	129	20	0	1313	90	0	55
206	124	117	-20	356	425	90	83	0
207	115	4	20	617	677	90	0	232
208	105	70	-10	278	333	90	64	0
209	120	92	-20	274	318	90	217	0
210	200	136	-30	361	405	90	322	0
211	14	84	-10	704	768	90	159	0
212	100	150	10	0	1361	90	0	28
213	190	112	20	0	1321	90	0	161
214	146	7	10	265	304	90	0	289
215	196	28	-10	540	607	90	160	0
216	100	6	30	141	227	90	0	358
217	118	97	20	169	232	90	0	209
218	12	154	-20	0	1308	90	61	0
219	97	162	-10	672	723	90	47	0
220	196	78	-10	802	854	90	24	0
221	172	114	20	229	278	90	0	284
222	14	92	-20	0	1325	90	69	0
223	7	142	-20	914	960	90	369	0
224	63	55	-10	1046	1115	90	231	0
225	54	30	-20	612	678	90	278	0
226	141	8	20	160	222	90	0	309
227	156	12	-10	0	1307	90	158	0
228	134	6	-10	1186	1238	90	350	0
229	198	78	-10	432	493	90	144	0
230	65	53	-20	951	1023	90	332	0
231	52	28	10	328	399	90	0	224
232	125	15	-20	997	1060	90	207	0
233	199	115	20	336	404	90	0	50
234	32	178	-20	1002	1085	90	48	0
235	179	55	30	337	389	90	0	388
236	11	151	20	260	307	90	0	11
237	99	154	-30	575	622	90	97	0
238	95	16	-30	619	689	90	18	0
239	83	197	-10	703	774	90	31	0
240	27	135	10	983	1049	0	0	402
241	102	121	-20	0	1390	90	321	0
242	179	165	20	729	783	90	0	259
243	87	196	-10	0	1315	90	362	0
244	38	190	10	435	508	90	0	57
245	183	167	-10	629	694	90	1	0
246	46	49	20	0	1337	90	0	81
247	149	5	10	535	591	90	0	162
248	84	194	10	437	483	90	0	27
249	93	150	-20	862	922	90	299	0
250	35	186	-10	920	971	90	98	0
251	177	146	10	719	768	90	0	276
252	26	147	20	0	1324	90	0	274
253	21	85	-30	899	947	90	113	0
254	195	97	20	0	1316	90	0	60
255	99	146	10	108	165	90	0	29
256	195	129	40	0	1312	90	0	19
257	105	127	-30	460	521	90	149	0
258	190	24	-20	1099	1161	90	166	0
259	178	165	-20	811	883	90	242	0
260	68	50	10	0	1352	0	0	404
261	190	110	-20	0	1321	90	383	0
262	60	51	-20	305	371	90	339	0
263	180	50	-10	699	763	90	129	0
264	181	151	-20	0	1316	90	62	0
265	143	189	10	0	1313	90	0	95
266	56	59	30	125	179	90	0	268
267	48	108	20	52	106	90	0	391
268	50	67	-30	497	556	90	266	0
269	101	70	20	97	146	90	0	145
270	185	123	-20	0	1323	90	324	0
271	38	188	-20	351	409	90	390	0
272	151	28	20	428	484	90	0	306
273	121	8	-10	0	1317	90	72	0
274	25	143	-20	423	486	90	252	0
275	26	138	-10	886	960	90	141	0
276	176	144	-10	893	958	90	251	0
277	78	119	-20	458	515	90	66	0
278	51	31	20	141	210	90	0	225
279	109	175	-40	411	477	90	135	0
280	150	98	10	207	254	0	0	420
281	180	52	10	0	1318	90	0	137
282	141	4	-20	615	683	90	109	0
283	152	3	-10	894	966	90	326	0
284	166	117	-20	318	382	90	221	0
285	93	7	-30	431	497	90	334	0
286	113	94	-30	0	1397	90	204	0
287	83	188	30	89	141	90	0	171
288	8	73	20	632	680	90	0	327
289	154	2	-10	993	1053	90	214	0
290	17	150	20	0	1315	90	0	35
291	116	189	30	0	1321	90	0	52
292	140	11	10	97	139	90	0	123
293	189	97	-10	715	768	90	199	0
294	184	116	-10	0	1326	90	193	0
295	198	76	-20	619	672	90	303	0
296	186	94	-20	0	1325	90	82	0
297	97	65	20	735	797	90	0	329
298	154	172	30	159	215	90	0	353
299	90	160	20	495	564	90	0	249
300	109	126	-30	0	1384	90	85	0
301	148	98	20	48	123	90	0	139
302	144	170	10	436	505	90	0	201
303	193	83	20	94	156	90	0	295
304	15	87	20	430	481	90	0	71
305	89	158	-30	601	642	90	360	0
306	153	29	-20	526	571	90	272	0
307	183	152	-10	0	1314	90	374	0
308	53	61	-20	0	1350	90	165	0
309	123	36	-20	0	1343	90	226	0
310	59	57	10	116	185	90	0	400
311	102	122	-20	920	988	90	140	0
312	45	48	10	0	1336	90	0	197
313	185	96	-20	981	1050	90	385	0
314	120	192	10	335	401	90	0	317
315	165	113	10	0	1345	90	0	3
316	177	145	-10	800	868	90	333	0
317	126	192	-10	0	1316	90	314	0
318	103	66	-10	541	618	90	100	0
319	69	47	10	585	650	90	0	41
320	150	3	10	724	771	90	0	104
321	110	164	20	688	764	90	0	241
322	178	123	30	81	166	90	0	210
323	53	31	-50	703	769	90	78	0
324	193	131	20	98	164	90	0	270
325	83	118	20	550	614	90	0	368
326	145	9	10	161	224	90	0	283
327	12	69	-20	0	1318	90	288	0
328	145	189	-10	437	488	90	380	0
329	97	67	-20	0	1378	90	297	0
330	193	28	-20	369	410	90	5	0
331	79	115	-20	0	1386	90	170	0
332	63	58	20	55	111	90	0	230
333	187	142	10	343	399	90	0	316
334	99	12	30	0	1323	90	0	285
335	181	89	10	81	151	90	0	359
336	111	93	-10	636	699	90	88	0
337	192	28	30	263	333	90	0	46
338	198	132	10	0	1308	90	0	134
339	57	54	20	0	1349	90	0	262
340	39	112	20	213	273	90	0	148
341	118	5	-20	522	586	90	365	0
342	122	37	-30	410	467	90	202	0
343	100	70	30	30	75	0	0	419
344	150	103	20	0	1361	90	0	91
345	28	193	-20	727	781	90	174	0
346	121	36	-20	785	836	90	154	0
347	152	31	10	0	1325	0	0	410
348	175	57	30	237	301	90	0	176
349	149	101	-20	560	633	90	392	0
350	140	3	10	526	589	90	0	228
351	165	116	10	421	462	90	0	356
352	143	5	10	711	772	90	0	183
353	153	160	-30	0	1331	90	298	0
354	121	116	10	0	1385	0	0	417
355	147	6	10	351	401	90	0	117
356	162	118	-10	0	1347	90	351	0
357	12	66	20	94	159	90	0	14
358	98	4	-30	0	1315	90	216	0
359	189	95	-10	517	581	90	335	0
360	91	160	30	60	107	90	0	305
361	147	26	-30	325	398	90	105	0
362	85	192	10	245	308	90	0	243
363	178	147	-10	0	1320	90	371	0
364	40	113	10	0	1350	90	0	373
365	122	8	20	344	393	90	0	341
366	119	113	30	23	77	90	0	150
367	45	104	-10	770	832	90	164	0
368	84	118	-20	642	703	90	325	0
369	8	154	20	629	681	90	0	223
370	25	146	-10	337	386	90	56	0
371	178	140	10	0	1324	90	0	363
372	146	103	-20	938	988	90	191	0
373	40	108	-10	309	367	90	364	0
374	183	148	10	95	158	90	0	307
375	99	128	20	87	155	0	0	411
376	151	35	-20	988	1040	90	377	0
377	154	27	20	607	675	90	0	376
378	42	102	-10	585	647	90	167	0
379	45	46	20	506	582	90	0	386
380	144	190	10	255	306	90	0	328
381	129	38	10	223	280	90	0	21
382	199	132	10	446	509	90	0	107
383	193	111	20	708	771	90	0	261
384	172	51	10	983	1051	0	0	407
385	188	88	20	154	203	90	0	313
386	40	49	-20	0	1333	90	379	0
387	52	38	30	78	138	90	0	34
388	178	54	-30	429	480	90	235	0
389	181	175	-10	262	320	90	181	0
390	41	187	20	262	311	90	0	271
391	49	104	-20	0	1360	90	267	0
392	150	99	20	300	344	90	0	349
393	106	166	-20	0	1345	90	399	0
394	5	73	-30	0	1313	90	77	0
395	148	32	-20	228	304	90	155	0
396	182	154	-30	645	699	90	32	0
397	116	12	20	89	155	90	0	203
398	78	115	10	278	325	90	0	20
399	121	188	20	723	775	90	0	393
400	61	50	-10	397	462	90	310	0
401	41	182	-30	101	166	90	189	0
402	27	135	-10	983	1049	90	240	0
403	123	121	-20	0	1380	90	99	0
404	68	50	-10	0	1352	90	260	0
405	151	190	-40	523	593	90	177	0
406	197	79	-10	333	409	90	93	0
407	172	51	-10	983	1051	90	384	0
408	60	58	-20	58	102	90	92	0
409	97	7	-20	340	400	90	195	0
410	152	31	-10	0	1325	90	347	0
411	99	128	-20	87	155	90	375	0
412	108	168	-20	512	569	90	90	0
413	119	37	-20	874	931	90	45	0
414	39	58	-30	74	131	90	94	0
415	174	128	-20	79	140	90	23	0
416	165	117	-10	0	1344	90	58	0
417	121	116	-10	0	1385	90	354	0
418	23	137	-20	703	763	90	4	0
419	100	70	-30	30	75	90	343	0
420	150	98	-10	207	254	90	280	0
421	87	118	-10	743	789	90	37	0
422	118	92	-30	365	412	90	185	0
