100	700	1	12
0	100	100	0	0	3693	0	0	0
1	37	48	10	81	961	90	0	264
2	42	100	-20	285	1165	90	391	0
3	131	31	-30	1773	2653	90	371	0
4	108	13	-10	1658	2538	90	254	0
5	17	166	10	1524	2404	90	0	394
6	147	134	20	2535	3415	90	0	131
7	48	103	10	565	1445	90	0	101
8	127	166	20	1835	2715	90	0	381
9	50	181	-20	506	1386	90	89	0
10	19	156	10	1825	2705	90	0	242
11	146	157	-10	1231	2111	90	197	0
12	93	166	10	1257	2137	90	0	390
13	170	83	-20	1675	2555	90	141	0
14	79	13	-30	1072	1952	90	298	0
15	73	112	10	29	909	90	0	307
16	87	87	-40	2299	3179	90	124	0
17	118	50	-20	1611	2491	90	35	0
18	79	70	-30	479	1359	90	25	0
19	67	102	-20	1541	2421	90	200	0
20	48	166	30	113	993	90	0	243
21	45	88	30	56	936	90	0	351
22	61	101	10	252	1132	90	0	261
23	54	175	20	409	1289	90	0	85
24	126	39	-30	1581	2461	90	103	0
25	107	73	30	27	907	90	0	18
26	42	75	20	1212	2092	90	0	299
27	74	102	10	149	1029	90	0	337
28	72	118	20	692	1572	90	0	363
29	65	135	20	981	1861	90	0	217
30	27	89	-10	2207	3087	90	203	0
31	84	133	10	36	916	90	0	185
32	178	69	-20	1382	2262	90	331	0
33	127	46	-20	2544	3424	90	132	0
34	28	96	20	72	952	90	0	205
35	100	47	20	53	933	90	0	17
36	69	167	20	73	953	90	0	206
37	98	59	10	41	921	90	0	358
38	79	84	-20	2109	2989	90	376	0
39	61	174	10	1093	1973	90	0	126
40	138	135	-10	2672	3552	90	247	0
41	170	156	-20	1725	2605	90	147	0
42	119	169	20	1737	2617	90	0	305
43	66	192	20	2026	2906	90	0	332
44	120	76	-10	1000	1880	90	369	0
45	29	171	-30	2211	3091	90	223	0
46	89	11	-10	1355	2235	90	276	0
47	170	64	20	1784	2664	90	0	121
48	135	146	-30	2666	3546	90	397	0
49	85	134	20	37	917	90	0	333
50	19	179	-30	632	1512	90	347	0
51	95	137	10	300	1180	90	0	109
52	163	125	-10	2336	3216	90	343	0
53	30	54	-30	83	963	90	137	0
54	16	77	-20	1100	1980	90	139	0
55	28	168	-30	2304	3184	90	142	0
56	78	188	20	2512	3392	90	0	82
57	27	83	-30	2303	3183	90	293	0
58	136	57	-20	1108	1988	90	117	0
59	59	98	10	1442	2322	90	0	259
60	170	49	30	515	1395	90	0	186
61	114	138	-20	2636	3516	90	286	0
62	78	154	10	58	938	90	0	152
63	69	190	-10	1933	2813	90	348	0
64	60	171	20	81	961	90	0	374
65	112	53	-30	1708	2588	90	172	0
66	99	123	-20	2150	3030	90	336	0
67	28	50	10	141	1021	90	0	104
68	97	163	20	1352	2232	90	0	231
69	150	135	20	477	1357	90	0	249
70	136	134	-20	2674	3554	90	208	0
71	120	153	-20	2530	3410	90	277	0
72	79	89	10	2672	3552	90	0	255
73	162	44	-10	128	1008	90	146	0
74	163	55	-10	2343	3223	90	272	0
75	103	91	20	9	889	90	0	170
76	74	91	-10	2696	3576	90	303	0
77	126	31	20	1868	2748	90	0	221
78	16	146	-30	1725	2605	90	202	0
79	84	20	-10	2237	3117	90	91	0
80	21	91	-20	1612	2492	90	226	0
81	37	162	20	2497	3377	90	0	195
82	89	168	-20	2655	3535	90	56	0
83	72	10	20	787	1667	90	0	384
84	55	160	10	212	1092	90	0	291
85	63	189	-20	2121	3001	90	23	0
86	164	124	-20	2245	3125	90	130	0
87	20	96	-10	1427	2307	90	174	0
88	82	88	-20	2394	3274	90	218	0
89	76	157	20	61	941	90	0	9
90	74	196	-10	2413	3293	90	395	0
91	85	14	10	1954	2834	90	0	79
92	77	86	-10	2016	2896	90	260	0
93	142	141	20	758	1638	90	0	118
94	119	66	-20	714	1594	90	129	0
95	7	176	10	1329	2209	90	0	327
96	92	55	-30	2325	3205	90	127	0
97	168	43	10	419	1299	90	0	289
98	89	113	-30	2254	3134	90	143	0
99	98	85	-10	2627	3507	90	294	0
100	46	99	-20	471	1351	90	325	0
101	62	120	-10	592	1472	90	7	0
102	93	1	20	1549	2429	90	0	320
103	144	58	30	1010	1890	90	0	24
104	20	54	-10	240	1120	90	67	0
105	32	191	10	113	993	90	0	111
106	143	72	-30	2641	3521	90	365	0
107	68	190	-20	1842	2722	90	166	0
108	140	51	10	1313	2193	90	0	193
109	119	130	-10	2688	3568	90	51	0
110	37	195	10	113	993	90	0	113
111	29	163	-10	2399	3279	90	105	0
112	120	70	-10	808	1688	90	114	0
113	12	186	-10	1131	2011	90	110	0
114	118	59	10	526	1406	90	0	112
115	90	74	10	27	907	90	0	167
116	165	151	-10	1534	2414	90	373	0
117	125	72	20	903	1783	90	0	58
118	177	122	-20	2050	2930	90	93	0
119	64	78	-10	269	1149	90	162	0
120	67	60	10	1092	1972	90	0	161
121	167	55	-20	2159	3039	90	47	0
122	173	56	-40	705	1585	90	163	0
123	179	78	20	1575	2455	90	0	378
124	83	74	40	768	1648	90	0	16
125	140	70	-30	1204	2084	90	191	0
126	81	191	-10	2606	3486	90	39	0
127	101	37	30	63	943	90	0	96
128	34	182	-30	337	1217	90	377	0
129	99	61	20	237	1117	90	0	94
130	168	126	20	2150	3030	90	0	86
131	139	131	-20	2674	3554	90	6	0
132	134	46	20	1391	2271	90	0	33
133	66	78	30	177	1057	90	0	224
134	71	189	-30	1749	2629	90	311	0
135	70	185	-20	1655	2535	90	387	0
136	16	78	-10	1902	2782	90	353	0
137	57	73	30	50	930	90	0	53
138	92	39	-20	2662	3542	90	257	0
139	5	58	20	623	1503	90	0	54
140	75	61	-10	379	1259	90	144	0
141	186	50	20	1090	1970	90	0	13
142	14	199	30	1027	1907	90	0	55
143	80	139	30	1182	2062	90	0	98
144	110	72	10	29	909	90	0	140
145	40	87	-10	2384	3264	90	385	0
146	155	38	10	82	962	90	0	73
147	155	108	20	55	935	90	0	41
148	152	149	-10	1431	2311	90	269	0
149	55	195	20	704	1584	90	0	204
150	86	100	-30	2709	3589	90	399	0
151	36	107	20	851	1731	90	0	352
152	103	148	-10	586	1466	90	62	0
153	29	88	10	2009	2889	90	0	207
154	32	93	-10	68	948	90	240	0
155	79	132	20	1654	2534	90	0	246
156	25	182	-10	535	1415	90	346	0
157	25	187	-30	828	1708	90	175	0
158	23	102	30	2103	2983	90	0	319
159	128	80	10	1098	1978	90	0	199
160	165	62	-20	1971	2851	90	389	0
161	34	84	-10	2492	3372	90	120	0
162	82	100	10	18	898	90	0	119
163	162	37	40	225	1105	90	0	122
164	138	132	-20	2674	3554	90	280	0
165	65	182	20	994	1874	90	0	300
166	53	168	20	82	962	90	0	107
167	114	55	-10	2258	3138	90	115	0
168	24	164	-20	1925	2805	90	334	0
169	74	5	20	972	1852	90	0	220
170	109	73	-20	28	908	90	75	0
171	102	146	-30	493	1373	90	292	0
172	144	38	30	783	1663	90	0	65
173	93	11	20	1449	2329	90	0	288
174	73	106	10	55	935	90	0	87
175	51	190	30	102	982	90	0	157
176	106	113	-20	2640	3520	90	210	0
177	81	80	10	27	907	90	0	190
178	138	22	30	585	1465	90	0	366
179	69	173	-20	1372	2252	90	323	0
180	75	18	30	597	1477	90	0	315
181	166	55	-30	2250	3130	90	379	0
182	89	68	10	670	1550	90	0	274
183	126	59	20	1419	2299	0	0	402
184	88	137	-10	1373	2253	90	357	0
185	99	152	-10	784	1664	90	31	0
186	178	54	-30	890	1770	90	60	0
187	132	51	20	1295	2175	90	0	317
188	100	147	10	401	1281	90	0	375
189	36	96	10	97	977	90	0	245
190	6	59	-10	715	1595	90	177	0
191	102	62	30	54	934	90	0	125
192	55	188	30	98	978	90	0	198
193	135	54	-10	1201	2081	90	108	0
194	6	66	20	902	1782	90	0	281
195	88	116	-20	2441	3321	90	81	0
196	29	75	20	1315	2195	90	0	354
197	143	140	10	667	1547	90	0	11
198	15	181	-30	726	1606	90	192	0
199	130	42	-10	1486	2366	90	159	0
200	17	99	20	1333	2213	90	0	19
201	182	68	-10	1288	2168	90	349	0
202	27	187	30	920	1800	90	0	78
203	40	34	10	89	969	90	0	30
204	57	183	-20	896	1776	90	149	0
205	64	140	-20	1076	1956	90	34	0
206	2	178	-20	1233	2113	90	36	0
207	34	89	-10	2104	2984	90	153	0
208	149	149	20	1132	2012	90	0	70
209	147	158	-20	2229	3109	90	251	0
210	110	150	20	683	1563	90	0	176
211	83	149	20	51	931	90	0	322
212	42	105	-10	755	1635	90	213	0
213	83	108	10	18	898	90	0	212
214	20	78	-30	1492	2372	90	216	0
215	38	85	-10	2291	3171	90	229	0
216	101	74	30	26	906	90	0	214
217	82	128	-20	1846	2726	90	29	0
218	73	110	20	28	908	90	0	88
219	81	136	20	1560	2440	90	0	393
220	91	14	-20	1858	2738	90	169	0
221	96	62	-20	2423	3303	90	77	0
222	130	47	-20	60	940	90	236	0
223	14	163	30	1618	2498	90	0	45
224	21	56	-30	332	1212	90	133	0
225	88	41	10	60	940	90	0	227
226	20	92	20	1521	2401	90	0	80
227	73	20	-10	504	1384	90	225	0
228	95	18	-20	1762	2642	90	263	0
229	17	87	10	1708	2588	90	0	215
230	123	32	30	1961	2841	90	0	244
231	124	170	-20	1930	2810	90	68	0
232	84	141	30	1277	2157	90	0	301
233	116	44	20	2157	3037	90	0	340
234	133	162	-20	2334	3214	90	239	0
235	74	31	-10	73	953	90	367	0
236	107	23	20	181	1061	90	0	222
237	25	102	20	1135	2015	90	0	266
238	97	71	-20	29	909	90	324	0
239	83	147	20	49	929	90	0	234
240	38	94	10	62	942	90	0	154
241	149	146	-20	1039	1919	90	271	0
242	93	117	-10	2705	3585	90	10	0
243	124	154	-30	2436	3316	90	20	0
244	115	40	-30	2063	2943	90	230	0
245	84	136	-10	1467	2347	90	189	0
246	88	111	-20	2346	3226	90	155	0
247	143	135	10	2629	3509	90	0	40
248	143	30	-10	685	1565	90	321	0
249	148	139	-20	572	1452	90	69	0
250	68	69	30	874	1754	90	0	267
251	97	157	20	1157	2037	90	0	209
252	146	113	20	47	927	90	0	258
253	118	9	10	381	1261	90	0	330
254	125	16	10	481	1361	90	0	4
255	81	92	-10	2578	3458	90	72	0
256	148	57	10	64	944	90	0	360
257	89	27	20	2427	3307	90	0	138
258	165	157	-20	1630	2510	90	252	0
259	70	89	-10	1919	2799	90	59	0
260	25	101	10	1044	1924	90	0	92
261	6	95	-10	1877	2757	90	22	0
262	89	80	20	22	902	90	0	362
263	76	15	20	690	1570	90	0	228
264	3	56	-10	531	1411	90	1	0
265	82	48	-40	2129	3009	90	382	0
266	81	89	-20	2485	3365	90	237	0
267	20	79	-30	1583	2463	90	250	0
268	30	75	10	1204	2084	90	0	344
269	160	137	10	102	982	90	0	148
270	150	130	-10	2440	3320	90	312	0
271	156	137	20	289	1169	90	0	241
272	169	54	10	610	1490	90	0	74
273	13	90	-10	1778	2658	90	283	0
274	49	64	-10	984	1864	90	182	0
275	39	99	20	364	1244	90	0	359
276	91	43	10	57	937	90	0	46
277	60	197	20	2219	3099	90	0	71
278	15	69	-30	1002	1882	90	372	0
279	101	164	10	1446	2326	90	0	316
280	153	161	20	1329	2209	90	0	164
281	11	83	-20	1805	2685	90	194	0
282	127	55	20	2643	3523	90	0	314
283	33	103	10	946	1826	90	0	273
284	43	101	30	661	1541	90	0	308
285	175	70	-10	1476	2356	90	386	0
286	122	144	20	2674	3554	90	0	61
287	68	16	-10	408	1288	90	290	0
288	93	32	-20	2617	3497	90	173	0
289	164	61	-10	2063	2943	90	97	0
290	79	31	10	72	952	90	0	287
291	69	178	-10	1557	2437	90	84	0
292	86	155	30	97	977	90	0	171
293	87	67	30	578	1458	90	0	57
294	99	48	10	2671	3551	90	0	99
295	72	8	20	879	1759	90	0	400
296	108	82	30	19	899	90	0	326
297	69	121	20	877	1757	0	0	403
298	67	13	30	315	1195	90	0	14
299	33	73	-20	1297	2177	90	26	0
300	68	176	-20	1465	2345	90	165	0
301	106	127	-30	2052	2932	90	232	0
302	106	60	-10	424	1304	90	313	0
303	35	90	10	2195	3075	90	0	76
304	84	13	-10	1167	2047	90	309	0
305	133	168	-20	2029	2909	90	42	0
306	21	76	20	1400	2280	90	0	364
307	67	89	-10	1826	2706	90	15	0
308	67	97	-30	1728	2608	90	284	0
309	69	40	10	100	980	90	0	304
310	13	120	-30	1993	2873	90	370	0
311	68	173	30	1281	2161	90	0	134
312	190	122	10	1855	2735	90	0	270
313	104	59	10	332	1212	90	0	302
314	117	53	-20	2352	3232	90	282	0
315	84	25	-30	2332	3212	90	180	0
316	109	169	-10	1546	2426	90	279	0
317	120	50	-20	2446	3326	90	187	0
318	52	79	20	2671	3551	0	0	404
319	69	99	-30	1635	2515	90	158	0
320	91	39	-20	2662	3542	90	102	0
321	108	26	10	87	967	90	0	248
322	116	171	-20	1643	2523	90	211	0
323	65	164	20	72	952	90	0	179
324	106	83	20	18	898	90	0	238
325	55	97	20	45	925	90	0	100
326	39	79	-30	2482	3362	90	296	0
327	13	173	-10	1426	2306	90	95	0
328	95	29	-20	2016	2896	90	342	0
329	160	136	-10	69	949	90	383	0
330	105	55	-10	1805	2685	90	253	0
331	146	62	20	59	939	90	0	32
332	73	196	-20	2322	3202	90	43	0
333	95	150	-20	197	1077	90	49	0
334	26	169	20	2020	2900	90	0	168
335	161	139	20	194	1074	90	0	388
336	77	126	20	1751	2631	90	0	66
337	66	81	-10	84	964	90	27	0
338	132	36	20	1678	2558	90	0	392
339	101	152	-30	876	1756	90	355	0
340	94	75	-20	2526	3406	90	233	0
341	158	122	30	62	942	90	0	398
342	81	20	20	2144	3024	90	0	328
343	180	126	10	1955	2835	90	0	52
344	47	76	-10	2665	3545	90	268	0
345	60	37	30	200	1080	90	0	356
346	35	185	10	244	1124	90	0	156
347	36	177	30	433	1313	90	0	50
348	48	191	10	606	1486	90	0	63
349	169	36	10	322	1202	90	0	201
350	177	45	30	989	1869	90	0	380
351	72	119	-30	783	1663	90	21	0
352	26	107	-20	1231	2111	90	151	0
353	15	57	10	428	1308	90	0	136
354	54	73	-20	2670	3550	90	196	0
355	68	152	30	61	941	90	0	339
356	93	26	-30	2521	3401	90	345	0
357	40	101	10	193	1073	90	0	184
358	111	24	-10	275	1155	90	37	0
359	46	128	-20	484	1364	90	275	0
360	177	55	-10	799	1679	90	256	0
361	132	139	10	2673	3553	0	0	401
362	101	62	-20	145	1025	90	262	0
363	97	116	-20	2540	3420	90	28	0
364	81	83	-20	2201	3081	90	306	0
365	157	59	30	2441	3321	90	0	106
366	91	49	-30	2229	3109	90	178	0
367	81	32	10	70	950	90	0	235
368	47	80	10	2580	3460	90	0	396
369	119	62	10	620	1500	90	0	44
370	43	98	30	378	1258	90	0	310
371	101	55	30	45	925	90	0	3
372	31	63	30	78	958	90	0	278
373	145	144	10	945	1825	90	0	116
374	56	192	-20	797	1677	90	64	0
375	101	158	-10	972	1852	90	188	0
376	30	86	20	2397	3277	90	0	38
377	33	188	30	151	1031	90	0	128
378	156	64	-20	2536	3416	90	123	0
379	154	44	30	77	957	90	0	181
380	171	63	-30	1875	2755	90	350	0
381	139	169	-20	2125	3005	90	8	0
382	121	52	40	1518	2398	90	0	265
383	139	102	10	39	919	90	0	329
384	84	10	-20	1260	2140	90	83	0
385	7	63	10	809	1689	90	0	145
386	184	55	10	1185	2065	90	0	285
387	58	168	20	311	1191	90	0	135
388	156	135	-20	381	1261	90	335	0
389	165	52	20	898	1778	90	0	160
390	128	141	-10	2674	3554	90	12	0
391	79	106	20	21	901	90	0	2
392	102	56	-20	1899	2779	90	338	0
393	87	132	-20	1942	2822	90	219	0
394	23	172	-10	2114	2994	90	5	0
395	64	172	10	1187	2067	90	0	90
396	82	104	-10	2705	3585	90	368	0
397	99	156	30	1065	1945	90	0	48
398	146	142	-30	853	1733	90	341	0
399	14	81	30	1679	2559	90	0	150
400	79	19	-20	2051	2931	90	295	0
401	132	139	-10	2673	3553	90	361	0
402	126	59	-20	1419	2299	90	183	0
403	69	121	-20	877	1757	90	297	0
404	52	79	-20	2671	3551	90	318	0
