100	700	1	12
0	100	100	0	0	3693	0	0	0
1	37	48	-30	287	447	90	137	0
2	42	100	30	0	3545	90	0	184
3	131	31	10	2133	2293	90	0	282
4	108	13	-10	2018	2178	90	367	0
5	17	166	-30	1884	2044	90	327	0
6	147	134	20	0	3545	90	0	164
7	48	103	10	925	1085	90	0	200
8	127	166	-10	2195	2355	90	383	0
9	50	181	-20	866	1026	90	323	0
10	19	156	-10	2185	2345	90	113	0
11	146	157	-30	1591	1751	90	341	0
12	93	166	10	1617	1777	90	0	195
13	170	83	30	2035	2195	90	0	121
14	79	13	20	0	3514	90	0	46
15	73	112	10	0	3574	90	0	326
16	87	87	-20	2659	2819	90	274	0
17	118	50	10	1971	2131	90	0	167
18	79	70	20	839	999	90	0	38
19	67	102	-10	0	3570	90	22	0
20	48	166	30	473	633	90	0	311
21	45	88	30	69	229	90	0	148
22	61	101	10	0	3564	90	0	19
23	54	175	20	769	929	90	0	300
24	126	39	-20	1941	2101	90	35	0
25	107	73	30	27	187	90	0	159
26	42	75	20	1572	1732	90	0	319
27	74	102	10	0	3577	90	0	310
28	72	118	20	1052	1212	90	0	343
29	65	135	-20	0	3554	90	275	0
30	27	89	-20	2567	2727	90	87	0
31	84	133	10	36	196	90	0	62
32	178	69	-20	1742	1902	90	122	0
33	127	46	-30	2904	3064	90	172	0
34	28	96	-10	0	3531	90	119	0
35	100	47	20	244	404	90	0	24
36	69	167	20	0	3530	90	0	64
37	98	59	10	51	211	90	0	199
38	79	84	-20	2469	2629	90	18	0
39	61	174	10	1453	1613	90	0	165
40	138	135	10	3084	3244	90	0	109
41	170	156	-20	0	3514	90	116	0
42	119	169	-20	2097	2257	90	147	0
43	66	192	-10	2386	2546	90	348	0
44	120	76	30	1360	1520	90	0	65
45	29	171	20	2571	2731	90	0	242
46	89	11	-20	1715	1875	90	14	0
47	170	64	-10	0	3525	90	386	0
48	135	146	-10	0	3546	90	197	0
49	85	134	20	48	208	90	0	339
50	19	179	-30	992	1152	90	192	0
51	95	137	-20	0	3566	90	149	0
52	163	125	-10	2696	2856	90	357	0
53	30	54	30	0	3520	90	0	224
54	16	77	-10	1460	1620	90	385	0
55	28	168	-20	2664	2824	90	334	0
56	78	188	-10	2872	3032	90	84	0
57	27	83	-30	0	3529	90	136	0
58	136	57	30	0	3547	90	0	132
59	59	98	-20	1802	1962	90	318	0
60	170	49	30	875	1035	90	0	350
61	114	138	-10	2996	3156	90	71	0
62	78	154	-10	58	218	90	31	0
63	69	190	-40	2293	2453	90	179	0
64	60	171	-20	370	530	90	36	0
65	112	53	-30	2068	2228	90	44	0
66	99	123	10	2510	2670	90	0	176
67	28	50	10	501	661	90	0	264
68	97	163	20	1712	1872	90	0	217
69	150	135	20	837	997	90	0	398
70	136	134	-20	3273	3433	90	205	0
71	120	153	10	2890	3050	90	0	61
72	79	89	-20	3032	3192	90	259	0
73	162	44	-20	488	648	90	75	0
74	163	55	-10	2703	2863	90	181	0
75	103	91	20	9	169	90	0	73
76	74	91	-10	3127	3287	90	309	0
77	126	31	-10	0	3530	90	321	0
78	16	146	10	2085	2245	90	0	168
79	84	20	-10	2597	2757	90	328	0
80	21	91	-20	1972	2132	90	151	0
81	37	162	-10	2857	3017	90	156	0
82	89	168	20	3081	3241	90	0	89
83	72	10	20	1147	1307	90	0	173
84	55	160	10	572	732	90	0	56
85	63	189	-20	2481	2641	90	291	0
86	164	124	-30	0	3535	90	359	0
87	20	96	20	1787	1947	90	0	30
88	82	88	20	0	3582	90	0	266
89	76	157	-20	0	3542	90	82	0
90	74	196	30	2773	2933	90	0	126
91	85	14	10	0	3516	90	0	356
92	77	86	20	2376	2536	90	0	150
93	142	141	-20	0	3545	90	388	0
94	119	66	-30	1074	1234	90	216	0
95	7	176	-30	0	3483	90	202	0
96	92	55	20	2685	2845	90	0	221
97	168	43	10	779	939	90	0	272
98	89	113	-10	2614	2774	90	171	0
99	98	85	-30	0	3588	90	265	0
100	46	99	-10	0	3549	90	174	0
101	62	120	30	952	1112	90	0	232
102	93	1	-30	0	3504	90	180	0
103	144	58	-30	0	3543	90	178	0
104	20	54	20	600	760	90	0	194
105	32	191	10	316	476	90	0	142
106	143	72	-20	3001	3161	90	389	0
107	68	190	-20	0	3508	90	387	0
108	140	51	10	1673	1833	90	0	296
109	119	130	-10	3405	3565	90	40	0
110	37	195	10	413	573	90	0	346
111	29	163	30	2759	2919	90	0	355
112	120	70	10	1168	1328	90	0	330
113	12	186	10	1491	1651	90	0	10
114	118	59	-40	886	1046	90	362	0
115	90	74	-10	0	3576	90	138	0
116	165	151	20	1894	2054	90	0	41
117	125	72	-30	0	3566	90	365	0
118	177	122	-10	2410	2570	90	312	0
119	64	78	10	629	789	90	0	34
120	67	60	-40	1452	1612	90	124	0
121	167	55	-30	2519	2679	90	13	0
122	173	56	20	1065	1225	90	0	32
123	179	78	-10	1935	2095	90	349	0
124	83	74	40	0	3572	90	0	120
125	140	70	-10	1564	1724	90	313	0
126	81	191	-30	2966	3126	90	90	0
127	101	37	30	344	504	90	0	379
128	34	182	20	697	857	90	0	347
129	99	61	-10	597	757	90	170	0
130	168	126	-10	2510	2670	90	240	0
131	139	131	-20	3178	3338	90	270	0
132	134	46	-30	1751	1911	90	58	0
133	66	78	30	537	697	90	0	158
134	71	189	10	2109	2269	90	0	292
135	70	185	-20	2015	2175	90	374	0
136	16	78	30	2262	2422	90	0	57
137	57	73	30	50	210	90	0	1
138	92	39	10	3165	3325	90	0	115
139	5	58	20	983	1143	90	0	153
140	75	61	20	0	3557	90	0	162
141	186	50	-10	0	3504	90	360	0
142	14	199	-10	1387	1547	90	105	0
143	80	139	-20	1542	1702	90	154	0
144	110	72	10	311	471	90	0	369
145	40	87	-20	2744	2904	90	207	0
146	155	38	-10	389	549	90	256	0
147	155	108	20	162	322	90	0	42
148	152	149	-30	1791	1951	90	21	0
149	55	195	20	1064	1224	90	0	51
150	86	100	-20	0	3589	90	92	0
151	36	107	20	1211	1371	90	0	80
152	103	148	20	946	1106	90	0	336
153	29	88	-20	2369	2529	90	139	0
154	32	93	20	264	424	90	0	143
155	79	132	-20	0	3565	90	211	0
156	25	182	10	895	1055	90	0	81
157	25	187	-20	1188	1348	90	198	0
158	23	102	-30	0	3526	90	133	0
159	128	80	-30	1458	1618	90	25	0
160	165	62	-20	0	3528	90	285	0
161	34	84	-20	2852	3012	90	212	0
162	82	100	-20	0	3585	90	140	0
163	162	37	-10	0	3515	90	222	0
164	138	132	-20	3296	3456	90	6	0
165	65	182	-10	0	3514	90	39	0
166	53	168	20	82	242	90	0	394
167	114	55	-10	0	3556	90	17	0
168	24	164	-10	2285	2445	90	78	0
169	74	5	20	1332	1492	90	0	320
170	109	73	10	219	379	90	0	129
171	102	146	10	853	1013	90	0	98
172	144	38	30	1143	1303	90	0	33
173	93	11	-20	1809	1969	90	83	0
174	73	106	10	0	3576	90	0	100
175	51	190	30	207	367	90	0	377
176	106	113	-10	3000	3160	90	66	0
177	81	80	10	339	499	90	0	308
178	138	22	30	945	1105	90	0	103
179	69	173	40	1732	1892	90	0	63
180	75	18	30	957	1117	90	0	102
181	166	55	10	2610	2770	90	0	74
182	89	68	10	1030	1190	90	0	364
183	126	59	20	1779	1939	90	0	382
184	88	137	-30	1733	1893	90	2	0
185	99	152	40	1144	1304	90	0	251
186	178	54	20	1250	1410	90	0	380
187	132	51	20	0	3545	90	0	324
188	100	147	10	761	921	90	0	210
189	36	96	-20	457	617	90	325	0
190	6	59	-10	1075	1235	90	353	0
191	102	62	30	414	574	90	0	302
192	55	188	30	113	273	90	0	50
193	135	54	30	1561	1721	90	0	317
194	6	66	-20	1262	1422	90	104	0
195	88	116	-10	0	3583	90	12	0
196	29	75	-10	1675	1835	90	268	0
197	143	140	10	1027	1187	90	0	48
198	15	181	20	1086	1246	90	0	157
199	130	42	-10	0	3538	90	37	0
200	17	99	-10	1693	1853	90	7	0
201	182	68	10	1648	1808	90	0	378
202	27	187	30	1280	1440	90	0	95
203	40	34	10	391	551	90	0	345
204	57	183	10	0	3510	90	0	395
205	64	140	20	1436	1596	90	0	70
206	2	178	10	1593	1753	90	0	223
207	34	89	20	2464	2624	90	0	145
208	149	149	20	1492	1652	90	0	305
209	147	158	-20	0	3529	90	329	0
210	110	150	-10	1043	1203	90	188	0
211	83	149	20	243	403	90	0	155
212	42	105	20	1115	1275	90	0	161
213	83	108	10	36	196	90	0	391
214	20	78	-20	1852	2012	90	306	0
215	38	85	-20	0	3540	90	278	0
216	101	74	30	44	204	90	0	94
217	82	128	-20	2206	2366	90	68	0
218	73	110	20	321	481	90	0	283
219	81	136	-20	0	3563	90	375	0
220	91	14	20	2218	2378	90	0	400
221	96	62	-20	2783	2943	90	96	0
222	130	47	10	60	220	90	0	163
223	14	163	-10	1978	2138	90	206	0
224	21	56	-30	0	3513	90	53	0
225	88	41	10	71	231	90	0	304
226	20	92	20	0	3523	90	0	368
227	73	20	10	864	1024	90	0	263
228	95	18	-20	0	3521	90	295	0
229	17	87	10	0	3519	90	0	261
230	123	32	-20	2321	2481	90	338	0
231	124	170	10	2290	2450	90	0	286
232	84	141	-30	1637	1797	90	101	0
233	116	44	20	0	3545	90	0	314
234	133	162	-20	2694	2854	90	252	0
235	74	31	10	360	520	90	0	342
236	107	23	20	0	3526	90	0	248
237	25	102	20	1495	1655	90	0	352
238	97	71	10	0	3574	90	0	244
239	83	147	20	151	311	90	0	246
240	38	94	10	168	328	90	0	130
241	149	146	10	1399	1559	90	0	390
242	93	117	-20	3109	3269	90	45	0
243	124	154	-30	2796	2956	90	381	0
244	115	40	-10	2423	2583	90	238	0
245	84	136	20	0	3564	90	0	301
246	88	111	-20	2706	2866	90	239	0
247	143	135	-20	2989	3149	90	258	0
248	143	30	-20	0	3521	90	236	0
249	148	139	-20	932	1092	90	271	0
250	68	69	30	1234	1394	90	0	307
251	97	157	-40	1517	1677	90	185	0
252	146	113	20	0	3556	90	0	234
253	118	9	-10	741	901	90	358	0
254	125	16	10	841	1001	90	0	331
255	81	92	-30	0	3583	90	354	0
256	148	57	10	188	348	90	0	146
257	89	27	-40	2787	2947	90	384	0
258	165	157	20	1990	2150	90	0	247
259	70	89	20	0	3572	90	0	72
260	25	101	-30	0	3528	90	284	0
261	6	95	-10	2237	2397	90	229	0
262	89	80	20	241	401	90	0	293
263	76	15	-10	1050	1210	90	227	0
264	3	56	-10	891	1051	90	67	0
265	82	48	30	2489	2649	90	0	99
266	81	89	-20	2845	3005	90	88	0
267	20	79	30	1943	2103	90	0	370
268	30	75	10	1564	1724	90	0	196
269	160	137	10	462	622	90	0	335
270	150	130	20	2800	2960	90	0	131
271	156	137	20	649	809	90	0	249
272	169	54	-10	970	1130	90	97	0
273	13	90	20	2138	2298	90	0	376
274	49	64	20	0	3541	90	0	16
275	39	99	20	724	884	90	0	29
276	91	43	10	57	217	90	0	287
277	60	197	20	2579	2739	90	0	332
278	15	69	20	1362	1522	90	0	215
279	101	164	10	1806	1966	90	0	363
280	153	161	20	0	3523	90	0	322
281	11	83	-30	2165	2325	90	372	0
282	127	55	-10	3003	3163	90	3	0
283	33	103	-20	1306	1466	90	218	0
284	43	101	30	1021	1181	90	0	260
285	175	70	20	0	3523	90	0	160
286	122	144	-10	3096	3256	90	231	0
287	68	16	-10	768	928	90	276	0
288	93	32	-10	2977	3137	90	315	0
289	164	61	10	2423	2583	0	0	403
290	79	31	10	265	425	90	0	298
291	69	178	20	1917	2077	90	0	85
292	86	155	-10	0	3547	90	134	0
293	87	67	-20	938	1098	90	262	0
294	99	48	10	3267	3427	0	0	401
295	72	8	20	1239	1399	90	0	228
296	108	82	-10	0	3584	90	108	0
297	69	121	-20	0	3566	90	351	0
298	67	13	-10	675	835	90	290	0
299	33	73	20	1657	1817	90	0	303
300	68	176	-20	0	3521	90	23	0
301	106	127	-20	2412	2572	90	245	0
302	106	60	-30	784	944	90	191	0
303	35	90	-20	2555	2715	90	299	0
304	84	13	-10	1527	1687	90	225	0
305	133	168	-20	0	3528	90	208	0
306	21	76	20	1760	1920	90	0	214
307	67	89	-30	0	3569	90	250	0
308	67	97	-10	2088	2248	90	177	0
309	69	40	10	0	3536	90	0	76
310	13	120	-10	0	3514	90	27	0
311	68	173	-30	1641	1801	90	20	0
312	190	122	10	0	3511	90	0	118
313	104	59	10	692	852	90	0	125
314	117	53	-20	2712	2872	90	233	0
315	84	25	10	0	3527	90	0	288
316	109	169	-30	1906	2066	90	397	0
317	120	50	-30	0	3550	90	193	0
318	52	79	20	0	3551	90	0	59
319	69	99	-20	1995	2155	90	26	0
320	91	39	-20	3074	3234	90	169	0
321	108	26	10	447	607	90	0	77
322	116	171	-20	0	3531	90	280	0
323	65	164	20	175	335	90	0	9
324	106	83	-20	0	3585	90	187	0
325	55	97	20	45	205	90	0	189
326	39	79	-10	0	3539	90	15	0
327	13	173	30	0	3490	90	0	5
328	95	29	10	2376	2536	90	0	79
329	160	136	20	371	531	90	0	209
330	105	55	-10	2165	2325	90	112	0
331	146	62	-10	0	3544	90	254	0
332	73	196	-20	0	3504	90	277	0
333	95	150	30	557	717	90	0	393
334	26	169	20	2380	2540	90	0	55
335	161	139	-10	554	714	90	269	0
336	77	126	-20	2111	2271	90	152	0
337	66	81	-30	0	3565	90	344	0
338	132	36	20	2038	2198	90	0	230
339	101	152	-20	1236	1396	90	49	0
340	94	75	-30	2886	3046	90	392	0
341	158	122	30	267	427	90	0	11
342	81	20	-10	2504	2664	90	235	0
343	180	126	-20	2315	2475	90	28	0
344	47	76	30	3034	3194	90	0	337
345	60	37	-10	560	720	90	203	0
346	35	185	-10	604	764	90	110	0
347	36	177	-20	0	3503	90	128	0
348	48	191	10	966	1126	90	0	43
349	169	36	10	682	842	90	0	123
350	177	45	-30	0	3509	90	60	0
351	72	119	20	1143	1303	90	0	297
352	26	107	-20	1591	1751	90	237	0
353	15	57	10	788	948	90	0	190
354	54	73	30	0	3550	90	0	255
355	68	152	-30	0	3542	90	111	0
356	93	26	-10	0	3529	90	91	0
357	40	101	10	553	713	90	0	52
358	111	24	10	635	795	90	0	253
359	46	128	30	844	1004	90	0	86
360	177	55	10	1159	1319	90	0	141
361	132	139	10	3393	3553	0	0	404
362	101	62	40	505	665	90	0	114
363	97	116	-10	2900	3060	90	279	0
364	81	83	-10	2561	2721	90	182	0
365	157	59	30	2801	2961	90	0	117
366	91	49	-30	2589	2749	90	371	0
367	81	32	10	173	333	90	0	4
368	47	80	-20	2940	3100	90	226	0
369	119	62	-10	980	1140	90	144	0
370	43	98	-30	0	3546	90	267	0
371	101	55	30	0	3558	90	0	366
372	31	63	30	89	249	90	0	281
373	145	144	10	0	3541	0	0	402
374	56	192	20	0	3502	90	0	135
375	101	158	20	1332	1492	90	0	219
376	30	86	-20	2757	2917	90	273	0
377	33	188	-30	0	3493	90	175	0
378	156	64	-10	2896	3056	90	201	0
379	154	44	-30	0	3526	90	127	0
380	171	63	-20	2235	2395	90	186	0
381	139	169	30	2485	2645	90	0	243
382	121	52	-20	0	3551	90	183	0
383	139	102	10	0	3564	90	0	8
384	84	10	40	1620	1780	90	0	257
385	7	63	10	0	3503	90	0	54
386	184	55	10	1545	1705	90	0	47
387	58	168	20	671	831	90	0	107
388	156	135	20	741	901	90	0	93
389	165	52	20	1258	1418	90	0	106
390	128	141	-10	0	3554	90	241	0
391	79	106	-10	131	291	90	213	0
392	102	56	30	2259	2419	90	0	340
393	87	132	-30	2302	2462	90	333	0
394	23	172	-20	2474	2634	90	166	0
395	64	172	-10	1547	1707	90	204	0
396	82	104	-30	3232	3392	90	399	0
397	99	156	30	1425	1585	90	0	316
398	146	142	-20	1213	1373	90	69	0
399	14	81	30	2039	2199	90	0	396
400	79	19	-20	2411	2571	90	220	0
401	99	48	-10	3267	3427	90	294	0
402	145	144	-10	0	3541	90	373	0
403	164	61	-10	2423	2583	90	289	0
404	132	139	-10	3393	3553	90	361	0
