50	200	1	12
0	70	70	0	0	634	0	0	0
1	10	86	14	351	501	0	0	202
2	16	62	15	336	486	10	0	76
3	84	36	-20	42	192	10	132	0
4	79	72	22	9	159	10	0	57
5	16	39	20	62	212	10	0	26
6	61	54	10	18	168	10	0	80
7	96	26	-10	51	201	10	153	0
8	16	92	-20	299	449	10	150	0
9	85	106	20	39	189	10	0	12
10	6	25	-20	78	228	10	47	0
11	37	125	-18	283	433	10	115	0
12	87	108	-20	41	191	10	9	0
13	18	104	-40	277	427	10	199	0
14	61	48	20	23	173	10	0	180
15	97	29	-20	49	199	10	136	0
16	112	67	10	42	192	10	0	154
17	50	106	-34	260	410	10	71	0
18	99	28	30	51	201	10	0	44
19	15	9	2	350	500	10	0	39
20	19	37	20	66	216	10	0	186
21	90	101	10	95	245	10	0	166
22	125	68	20	132	282	10	0	91
23	127	108	10	75	225	10	0	117
24	90	44	6	32	182	10	0	156
25	4	23	-30	81	231	10	164	0
26	17	37	-20	62	212	10	5	0
27	113	32	-9	84	234	10	167	0
28	63	57	10	14	164	10	0	124
29	94	104	10	68	218	10	0	189
30	58	95	35	425	575	0	0	203
31	137	96	9	71	221	10	0	86
32	127	112	-19	70	220	10	74	0
33	103	119	-20	274	424	10	160	0
34	20	69	13	318	468	0	0	208
35	2	28	-16	79	229	10	200	0
36	88	29	-18	430	580	10	110	0
37	86	102	10	35	185	10	0	59
38	126	112	10	70	220	10	0	108
39	61	34	-2	413	563	10	19	0
40	113	69	-10	43	193	10	119	0
41	109	78	-34	178	328	10	195	0
42	21	48	-19	53	203	10	162	0
43	86	36	20	37	187	10	0	190
44	97	12	-30	146	296	10	18	0
45	121	112	-12	66	216	10	52	0
46	19	39	-9	78	228	10	63	0
47	66	40	20	30	180	10	0	10
48	87	39	20	35	185	10	0	131
49	63	50	10	21	171	10	0	146
50	121	123	-21	197	347	10	112	0
51	116	22	-12	78	228	10	152	0
52	137	101	12	109	259	10	0	45
53	137	137	-20	94	244	10	168	0
54	70	94	32	24	174	10	0	87
55	117	92	-30	223	373	10	129	0
56	122	113	20	67	217	10	0	114
57	109	71	-22	39	189	10	4	0
58	35	102	10	112	262	10	0	176
59	91	108	-10	43	193	10	37	0
60	8	87	17	341	491	10	0	175
61	140	42	-30	75	225	10	182	0
62	16	38	20	62	212	10	0	159
63	44	36	9	42	192	10	0	46
64	60	84	-20	422	572	10	172	0
65	109	139	8	79	229	10	0	128
66	80	103	-17	312	462	10	107	0
67	66	82	-20	441	591	10	163	0
68	99	26	40	52	202	10	0	103
69	34	108	10	61	211	10	0	137
70	135	65	-20	279	429	10	177	0
71	36	124	34	174	324	10	0	17
72	102	60	30	75	225	10	0	194
73	30	21	-10	262	412	10	193	0
74	139	110	19	131	281	10	0	32
75	10	111	21	402	552	0	0	209
76	18	70	-15	331	481	10	2	0
77	4	28	10	84	234	10	0	93
78	57	53	10	34	184	10	0	174
79	54	41	-29	221	371	10	90	0
80	107	25	-10	214	364	10	6	0
81	110	99	-37	243	393	10	92	0
82	84	88	16	296	446	0	0	201
83	101	0	-1	398	548	10	95	0
84	28	99	-20	51	201	10	134	0
85	119	114	-10	65	215	10	173	0
86	118	108	-9	115	265	10	31	0
87	50	112	-32	172	322	10	54	0
88	44	116	27	52	202	10	0	121
89	82	100	18	44	194	10	0	100
90	83	12	29	170	320	10	0	79
91	126	23	-20	203	353	10	22	0
92	85	75	37	15	165	10	0	81
93	39	13	-10	316	466	10	77	0
94	120	136	10	82	232	10	0	192
95	105	2	1	164	314	10	0	83
96	36	54	-20	312	462	10	171	0
97	35	90	-20	386	536	10	127	0
98	111	66	-30	41	191	10	161	0
99	119	136	30	82	232	10	0	101
100	84	99	-18	32	182	10	89	0
101	137	127	-30	136	286	10	99	0
102	95	35	10	43	193	10	0	196
103	69	6	-40	64	214	10	68	0
104	1	24	10	82	232	10	0	170
105	31	112	20	57	207	10	0	118
106	138	78	-10	142	292	10	147	0
107	100	99	17	239	389	10	0	66
108	123	112	-10	67	217	10	38	0
109	119	130	-10	93	243	10	165	0
110	92	22	18	130	280	10	0	36
111	137	7	-20	96	246	10	145	0
112	121	124	21	90	240	10	0	50
113	34	104	10	87	237	10	0	191
114	121	110	-20	101	251	10	56	0
115	56	139	18	250	400	10	0	11
116	106	10	13	239	389	10	0	148
117	125	108	-10	87	237	10	23	0
118	21	115	-20	66	216	10	105	0
119	110	66	10	45	195	10	0	40
120	36	38	5	378	528	0	0	206
121	56	129	-27	227	377	10	88	0
122	4	30	-13	96	246	10	149	0
123	8	138	-16	231	381	10	140	0
124	88	35	-10	39	189	10	28	0
125	116	132	10	117	267	0	0	205
126	113	45	4	239	389	0	0	210
127	28	107	20	55	205	10	0	97
128	115	134	-8	78	228	10	65	0
129	116	83	30	119	269	10	0	55
130	57	59	-20	62	212	10	187	0
131	89	39	-20	36	186	10	48	0
132	59	52	20	22	172	10	0	3
133	112	71	20	42	192	10	0	198
134	35	99	20	125	275	10	0	84
135	23	39	-10	292	442	10	197	0
136	84	39	20	55	205	10	0	15
137	19	120	-10	201	351	10	69	0
138	20	39	10	89	239	10	0	185
139	90	104	-30	82	232	10	143	0
140	66	91	16	21	171	10	0	123
141	4	44	-20	356	506	10	181	0
142	78	63	19	10	160	10	0	183
143	92	107	30	43	193	10	0	139
144	37	138	-8	150	300	10	155	0
145	120	14	20	199	349	10	0	111
146	33	0	-10	395	545	10	49	0
147	113	71	10	43	193	10	0	106
148	112	13	-13	404	554	10	116	0
149	41	36	13	44	194	10	0	122
150	64	61	20	89	239	10	0	8
151	121	134	-10	81	231	10	188	0
152	103	44	12	42	192	10	0	51
153	67	55	10	15	165	10	0	7
154	86	80	-10	314	464	10	16	0
155	64	132	8	62	212	10	0	144
156	93	36	-6	41	191	10	24	0
157	115	124	11	351	501	0	0	204
158	103	82	-13	266	416	10	169	0
159	18	38	-20	61	211	10	62	0
160	122	131	20	80	230	10	0	33
161	107	63	30	59	209	10	0	98
162	48	47	19	31	181	10	0	42
163	62	58	20	14	164	10	0	67
164	0	27	30	82	232	10	0	25
165	118	114	10	65	215	10	0	109
166	91	95	-10	111	261	10	21	0
167	113	35	9	55	205	10	0	27
168	119	139	20	84	234	10	0	53
169	104	54	13	37	187	10	0	158
170	15	4	-10	85	235	10	104	0
171	59	56	20	48	198	10	0	96
172	21	44	20	55	205	10	0	64
173	100	106	10	46	196	10	0	85
174	47	83	-10	258	408	10	78	0
175	34	72	-17	438	588	10	60	0
176	32	106	-10	74	224	10	58	0
177	109	131	20	72	222	10	0	70
178	89	24	-20	241	391	10	179	0
179	97	28	20	49	199	10	0	178
180	86	37	-20	36	186	10	14	0
181	1	34	20	77	227	10	0	141
182	103	69	30	33	183	10	0	61
183	98	31	-19	48	198	10	142	0
184	103	34	30	51	201	0	0	207
185	13	48	-10	360	510	10	138	0
186	22	38	-20	101	251	10	20	0
187	61	59	20	76	226	10	0	130
188	94	105	10	57	207	10	0	151
189	118	131	-10	104	254	10	29	0
190	108	30	-20	55	205	10	43	0
191	36	105	-10	99	249	10	113	0
192	133	130	-10	162	312	10	94	0
193	15	18	10	340	490	10	0	73
194	103	86	-30	198	348	10	72	0
195	107	77	34	37	187	10	0	41
196	99	34	-10	46	196	10	102	0
197	17	43	10	59	209	10	0	135
198	140	36	-20	116	266	10	133	0
199	26	105	40	56	206	10	0	13
200	60	23	16	48	198	10	0	35
201	84	88	-16	296	446	10	82	0
202	10	86	-14	351	501	10	1	0
203	58	95	-35	425	575	10	30	0
204	115	124	-11	351	501	10	157	0
205	116	132	-10	117	267	10	125	0
206	36	38	-5	378	528	10	120	0
207	103	34	-30	51	201	10	184	0
208	20	69	-13	318	468	10	34	0
209	10	111	-21	402	552	10	75	0
210	113	45	-4	239	389	10	126	0
